Access the openFEMA API • rfema
…
# remove the html line breaks from returned data frame (if there are any)  
data <- as_tibble(lapply(data, function(data) gsub("\n", "", data)))

# view the retrieved data
data

## # A tibble: 9,986 × 73
##    agriculture…¹ asOfD…² basem…³ polic…⁴ crsCl…⁵ dateO…⁶ eleva…⁷ eleva…⁸ eleva…⁹
##    <chr>         <chr>   <chr>   <chr>   <chr>   <chr>   <chr>   <chr>   <chr>  
##  1 FALSE         2021-0… 0       1       5       2020-0… FALSE   NULL    1      
##  2 FALSE         2023-0… 0       1       6       2020-0… FALSE   1       NULL   
##  3 FALSE         2020-0… 2       1       7       2020-0… TRUE    3       -6     
##  4 FALSE         2022-0… 0       1       6       2020-0… FALSE   1       NULL   
##  5 FALSE         2023-0… 1       1       10      2020-0… FALSE   3       1      
##  6 FALSE         2023-0… NULL    1       6       2020-0… TRUE    NULL    0      
##  7 FALSE         2020-0… NULL    1       6       2020-0… FALSE   NULL    7      
##  8 FALSE         2022-1… 0       1       7       2020-0… FALSE   NULL    NULL   
##  9 FALSE         2022-1… 0       1       5       2020-0… FALSE   1       NULL   
## 10 FALSE         2023-0… 0       1       5       2020-0… FALSE   NULL    4      
## # … with 9,976 more rows, 64 more variables: baseFloodElevation <chr>,
## #   ratedFloodZone <chr>, houseWorship <chr>, locationOfContents <chr>,
## #   lowestAdjacentGrade <chr>, lowestFloorElevation <chr>,
## #   numberOfFloorsInTheInsuredBuilding <chr>, nonProfitIndicator <chr>,
## #   obstructionType <chr>, occupancyType <chr>, originalConstructionDate <chr>,
## #   originalNBDate <chr>, amountPaidOnBuildingClaim <chr>,
## #   amountPaidOnContentsClaim <chr>, …

Compare the above block of code to the following code which obtains the same data using the rfema package. The rfema package allows the same request to be made with two lines of code. Notably, the open_fema() function handles checking the number of records and implements an iterative loop to deal with the 1000 records/call limit.

# define a list of filters to apply
filterList <- list(state = "FL",yearOfLoss = "= 2020")

# Make the API call using the `open_fema` function. The function will output a 
# status message to the console letting you monitor the progress of the data retrieval.
data <- open_fema(data_set = "fimaNfipClaims",ask_before_call = F, filters = filterList)

# view data
data

## # A tibble: 9,986 × 73
##    agriculture…¹ asOfDate            basem…² polic…³ crsCl…⁴ dateOfLoss         
##    <chr>         <dttm>              <chr>   <chr>   <chr>   <dttm>             
##  1 FALSE         2021-03-30 00:00:00 0       1       5       2020-01-02 00:00:00
##  2 FALSE         2023-06-01 00:00:00 0       1       6       2020-01-03 00:00:00
##  3 FALSE         2020-07-17 00:00:00 2       1       7       2020-01-02 00:00:00
##  4 FALSE         2022-09-11 00:00:00 0       1       6       2020-01-05 00:00:00
##  5 FALSE         2023-02-14 00:00:00 1       1       10      2020-01-09 00:00:00
##  6 FALSE         2023-03-03 00:00:00 NULL    1       6       2020-01-01 00:00:00
##  7 FALSE         2020-04-20 00:00:00 NULL    1       6       2020-01-11 00:00:00
##  8 FALSE         2022-11-16 00:00:00 0       1       7       2020-01-04 00:00:00
##  9 FALSE         2022-12-02 00:00:00 0       1       5       2020-01-12 00:00:00
## 10 FALSE         2023-02-22 00:00:00 0       1       5       2020-01-21 00:00:00
## # … with 9,976 more rows, 67 more variables: elevatedBuildingIndicator <chr>,
## #   elevationCertificateIndicator <chr>, elevationDifference <chr>,
## #   baseFloodElevation <chr>, ratedFloodZone <chr>, houseWorship <chr>,
## #   locationOfContents <chr>, lowestAdjacentGrade <chr>,
## #   lowestFloorElevation <chr>, numberOfFloorsInTheInsuredBuilding <chr>,
## #   nonProfitIndicator <chr>, obstructionType <chr>, occupancyType <chr>,
## #   originalConstructionDate <dttm>, originalNBDate <dttm>, …
…
Installation

Right now, the best way to install and use the rfema package is by installing directly from rOpenSci using install.packages("rfema", repos = "https://ropensci.r-universe.dev"). The FEMA API does not require and API key, meaning no further setup steps need be taken to start using the package.

Usage

For those unfamiliar with the data sets available through the FEMA API, a good starting place is to visit the FEMA API documentation page. However, if you are already familiar with the data and want to quickly reference the data set names or another piece of meta data, using the fema_data_sets() function to obtain a tibble of available data sets along with associated meta data is a convenient option.

# store meta data for the available data sets as an object in the R environment
data_sets <- fema_data_sets()

# view the just retrieved data
data_sets

## # A tibble: 51 × 35
##    identif…¹ name  title descr…² webSe…³ dataD…⁴ keyword modif…⁵ publi…⁶ conta…⁷
##    <chr>     <chr> <chr> <chr>   <chr>   <chr>   <list>  <chr>   <chr>   <chr>  
##  1 openfema… Fema… FEMA… "This … https:… https:… <list>  2023-0… Federa… OpenFE…
##  2 openfema… Ipaw… IPAW… "The I… https:… https:… <list>  2020-0… Federa… OpenFE…
##  3 openfema… Regi… Regi… "This … https:… https:… <list>  2023-0… Federa… OpenFE…
##  4 openfema… Regi… Regi… "This … https:… https:… <list>  2023-1… Federa… OpenFE…
##  5 openfema… Fema… FEMA… "This … https:… https:… <list>  2023-0… Federa… OpenFE…
##  6 openfema… Haza… Haza… "The d… https:… https:… <list>  2023-1… Federa… OpenFE…
##  7 openfema… Hous… Hous… "This … https:… https:… <list>  2023-0… Federa… OpenFE…
##  8 openfema… Hous… Hous… "The d… https:… https:… <list>  2023-0… Federa… OpenFE…
##  9 openfema… Indi… Indi… "This … https:… https:… <list>  2020-0… Federa… OpenFE…
## 10 openfema… Miss… Miss… "1.1 W… https:… https:… <list>  2023-0… Federa… OpenFE…
## # … with 41 more rows, 25 more variables: mbox <chr>, accessLevel <chr>,
## #   landingPage <list>, temporal <list>, api <lgl>, version <int>,
## #   bureauCode <chr>, programCode <chr>, license <list>, theme <list>,
## #   dataQuality <chr>, accrualPeriodicity <list>, language <chr>,
## #   references <list>, issued <list>, recordCount <list>, depDate <list>,
## #   depApiMessage <list>, depWebMessage <list>, depNewURL <list>, hash <chr>,
## #   lastRefresh <chr>, id <chr>, lastDataSetRefresh <list>, …
…
