rfema: Getting Started • rfema
…
Installation

Right now, the best way to install and use the rfema package is by installing directly from rOpenSci using install.packages("rfema", repos = "https://ropensci.r-universe.dev"). The FEMA API does not require and API key, meaning no further setup steps need be taken to start using the package

Available Datasets

For those unfamiliar with the data sets available through the FEMA API, a good starting place is to visit the FEMA API documentation page. However, if you are already familiar with the data and want to quickly reference the data set names or another piece of meta data, using the fema_data_sets() function to obtain a tibble of available data sets along with associated meta data is a convenient option.

# store the avaliable data sets as an object in your R environment that can be referenced later
data_sets <- fema_data_sets() 

# view data 
data_sets

## # A tibble: 51 × 35
##    identifier  name     title descr…¹ webSe…² dataD…³ keyword modif…⁴ publi…⁵ conta…⁶ mbox  acces…⁷
##    <chr>       <chr>    <chr> <chr>   <chr>   <chr>   <list>  <chr>   <chr>   <chr>   <chr> <chr>  
##  1 openfema-53 Registr… Regi… "This … https:… https:… <list>  2023-0… Federa… OpenFE… open… public 
##  2 openfema-68 NfipCom… NFIP… "This … https:… https:… <list>  2023-0… Federa… OpenFE… open… public 
##  3 openfema-14 Registr… Regi… "This … https:… https:… <list>  2023-1… Federa… OpenFE… open… public 
##  4 openfema-45 HazardM… Haza… "The d… https:… https:… <list>  2023-1… Federa… OpenFE… open… public 
##  5 openfema-54 Housing… Hous… "This … https:… https:… <list>  2023-0… Federa… OpenFE… open… public 
##  6 openfema-55 Housing… Hous… "The d… https:… https:… <list>  2023-0… Federa… OpenFE… open… public 
##  7 openfema-34 Individ… Indi… "This … https:… https:… <list>  2020-0… Federa… OpenFE… open… public 
##  8 openfema-24 FemaWeb… FEMA… "This … https:… https:… <list>  2023-0… Federa… OpenFE… open… public 
##  9 openfema-33 Mission… Miss… "1.1 W… https:… https:… <list>  2023-0… Federa… OpenFE… open… public 
## 10 openfema-25 FemaWeb… FEMA… "This … https:… https:… <list>  2023-0… Federa… OpenFE… open… public 
## # … with 41 more rows, 23 more variables: landingPage <list>, temporal <list>, api <lgl>,
## #   version <int>, bureauCode <chr>, programCode <chr>, license <list>, theme <list>,
## #   dataQuality <chr>, accrualPeriodicity <list>, language <chr>, references <list>,
## #   issued <list>, recordCount <list>, depDate <list>, depApiMessage <list>, depWebMessage <list>,
## #   depNewURL <list>, hash <chr>, lastRefresh <chr>, id <chr>, lastDataSetRefresh <list>,
## #   distribution <list>, and abbreviated variable names ¹​description, ²​webService,
## #   ³​dataDictionary, ⁴​modified, ⁵​publisher, ⁶​contactPoint, ⁷​accessLevel
…
## 
Obtaining Data: 1 out of 2 iterations (50% complete)
Obtaining Data: 2 out of 2 iterations (100%
## complete)

# Note: the data set field is not case sensative, meaning you do not need to 
# use camel case names despite that being the convention in the FEMA documentation.
df <- fema_data_fields(data_set = "fimanfippolicies")

# view the data fields 
df

## # A tibble: 127 × 15
##    datase…¹ openF…² datas…³ name  title descr…⁴ type  sortO…⁵ isSea…⁶ isNes…⁷ isNul…⁸ prima…⁹ id   
##    <chr>    <chr>   <chr>   <chr> <chr> <chr>   <chr> <chr>   <chr>   <chr>   <chr>   <chr>   <chr>
##  1 openfem… FimaNf… 2       poli… Poli… Date u… date  29      TRUE    FALSE   TRUE    FALSE   3558…
##  2 openfem… FimaNf… 1       base… Base… Baseme… smal… 3       TRUE    FALSE   FALSE   FALSE   689d…
##  3 openfem… FimaNf… 1       cond… Cond… This i… text  6       TRUE    FALSE   FALSE   FALSE   ca12…
##  4 openfem… FimaNf… 1       crsC… CRS … The Co… smal… 9       TRUE    FALSE   FALSE   FALSE   1923…
##  5 openfem… FimaNf… 1       dedu… Dedu… The to… text  10      TRUE    FALSE   FALSE   FALSE   a3fb…
##  6 openfem… FimaNf… 1       dedu… Dedu… The to… text  11      TRUE    FALSE   FALSE   FALSE   7c1b…
##  7 openfem… FimaNf… 1       elev… Elev… Yes (Y… bool… 12      TRUE    FALSE   FALSE   FALSE   e9b1…
##  8 openfem… FimaNf… 1       elev… Elev… Indica… text  13      TRUE    FALSE   FALSE   FALSE   b59e…
##  9 openfem… FimaNf… 1       floo… Floo… NFIP F… text  16      TRUE    FALSE   FALSE   FALSE   42ac…
## 10 openfem… FimaNf… 1       loca… Loca… Code t… smal… 20      TRUE    FALSE   FALSE   FALSE   a72e…
## # … with 117 more rows, 2 more variables: lastRefresh <chr>, hash <chr>, and abbreviated variable
## #   names ¹​datasetId, ²​openFemaDataSet, ³​datasetVersion, ⁴​description, ⁵​sortOrder, ⁶​isSearchable,
## #   ⁷​isNestedObject, ⁸​isNullable, ⁹​primaryKey
…
If we wanted to limit the columns returned we could do so by passing a character vector of data fields to be included in the returned data frame. The data fields for a given data set can be retrieved using the fema_data_fields() function.

data_fields <- fema_data_fields("fimanfipclaims")

data_fields

## # A tibble: 113 × 15
##    datase…¹ openF…² datas…³ name  title descr…⁴ type  sortO…⁵ isSea…⁶ isNes…⁷ isNul…⁸ prima…⁹ id   
##    <chr>    <chr>   <chr>   <chr> <chr> <chr>   <chr> <chr>   <chr>   <chr>   <chr>   <chr>   <chr>
##  1 openfem… FimaNf… 2       wate… Wate… Depth … smal… 61      TRUE    FALSE   TRUE    FALSE   7e46…
##  2 openfem… FimaNf… 1       base… Base… Baseme… smal… 4       TRUE    FALSE   FALSE   FALSE   be90…
##  3 openfem… FimaNf… 1       cond… Cond… This i… text  6       TRUE    FALSE   FALSE   FALSE   8690…
##  4 openfem… FimaNf… 1       comm… Comm… The Co… smal… 9       TRUE    FALSE   FALSE   FALSE   264c…
##  5 openfem… FimaNf… 1       elev… Elev… Indica… smal… 12      TRUE    FALSE   TRUE    FALSE   a63c…
##  6 openfem… FimaNf… 1       floo… Floo… Flood … text  15      TRUE    FALSE   TRUE    FALSE   f727…
##  7 openfem… FimaNf… 1       loca… Loca… Code t… smal… 18      TRUE    FALSE   TRUE    FALSE   9720…
##  8 openfem… FimaNf… 1       numb… Numb… Code t… smal… 22      TRUE    FALSE   FALSE   FALSE   56d6…
##  9 openfem… FimaNf… 1       obst… Obst… Code t… smal… 24      TRUE    FALSE   TRUE    FALSE   85b2…
## 10 openfem… FimaNf… 1       occu… Occu… Code i… smal… 25      TRUE    FALSE   FALSE   FALSE   7c3b…
## # … with 103 more rows, 2 more variables: lastRefresh <chr>, hash <chr>, and abbreviated variable
## #   names ¹​datasetId, ²​openFemaDataSet, ³​datasetVersion, ⁴​description, ⁵​sortOrder, ⁶​isSearchable,
## #   ⁷​isNestedObject, ⁸​isNullable, ⁹​primaryKey
…
If we want to limit the rows returned rather than the columns, we can also apply filters by specifying values of the columns to return. If we want to quickly see the set of variables that can be used to filter API queries with, we can use the valid_parameters() function to return a tibble containing the variables that are “searchable” for a particular data set.

params <- valid_parameters(data_set = "fimaNfipClaims")

params

## # A tibble: 63 × 1
##    params                            
##    <chr>                             
##  1 waterDepth                        
##  2 basementEnclosureCrawlspaceType   
##  3 crsClassificationCode             
##  4 elevationCertificateIndicator     
##  5 elevationDifference               
##  6 ratedFloodZone                    
##  7 locationOfContents                
##  8 numberOfFloorsInTheInsuredBuilding
##  9 obstructionType                   
## 10 buildingDeductibleCode            
## # … with 53 more rows
…
More Examples

Example: Return the first 100 NFIP claims for Florida that happened between 2010 and 2020.

df <- open_fema(data_set = "fimaNfipClaims",
                 top_n = 100,
                 filters = list(state = "FL",
                                yearOfLoss = ">= 2010",
                                yearOfLoss = "<= 2020"))

df

## # A tibble: 100 × 73
##    agricu…¹ asOfDate            basem…² polic…³ crsCl…⁴ dateOfLoss          eleva…⁵ eleva…⁶ eleva…⁷
##    <chr>    <dttm>              <chr>   <chr>   <chr>   <dttm>              <chr>   <chr>   <chr>  
##  1 FALSE    2020-01-22 00:00:00 NULL    1       7       2012-09-06 00:00:00 FALSE   NULL    3      
##  2 FALSE    2020-01-22 00:00:00 NULL    1       7       2017-10-07 00:00:00 FALSE   NULL    NULL   
##  3 FALSE    2021-10-20 00:00:00 NULL    1       6       2014-04-30 00:00:00 TRUE    NULL    -3     
##  4 FALSE    2020-01-22 00:00:00 NULL    1       5       2017-09-10 00:00:00 FALSE   NULL    NULL   
##  5 FALSE    2022-06-17 00:00:00 NULL    1       7       2017-09-09 00:00:00 FALSE   NULL    NULL   
##  6 FALSE    2020-01-22 00:00:00 NULL    1       6       2012-06-09 00:00:00 FALSE   NULL    NULL   
##  7 FALSE    2020-01-22 00:00:00 NULL    1       8       2011-10-08 00:00:00 FALSE   NULL    NULL   
##  8 FALSE    2020-01-22 00:00:00 NULL    1       6       2014-04-29 00:00:00 FALSE   NULL    NULL   
##  9 FALSE    2020-01-22 00:00:00 NULL    1       5       2012-06-24 00:00:00 FALSE   NULL    NULL   
## 10 FALSE    2023-07-31 00:00:00 NULL    1       7       2014-04-29 00:00:00 TRUE    NULL    3      
## # … with 90 more rows, 64 more variables: baseFloodElevation <chr>, ratedFloodZone <chr>,
## #   houseWorship <chr>, locationOfContents <chr>, lowestAdjacentGrade <chr>,
## #   lowestFloorElevation <chr>, numberOfFloorsInTheInsuredBuilding <chr>,
## #   nonProfitIndicator <chr>, obstructionType <chr>, occupancyType <chr>,
## #   originalConstructionDate <dttm>, originalNBDate <dttm>, amountPaidOnBuildingClaim <chr>,
## #   amountPaidOnContentsClaim <chr>, amountPaidOnIncreasedCostOfComplianceClaim <chr>,
## #   postFIRMConstructionIndicator <chr>, rateMethod <chr>, smallBusinessIndicatorBuilding <chr>, …

Example: Get data on all Hazard Mitigation Assistance Projects associated with flood mitigation in Florida.

# see which parameter can be used for filtering the Hazard Mitigation Grants data set
valid_parameters("HazardMitigationAssistanceProjects") 

## # A tibble: 29 × 1
##    params           
##    <chr>            
##  1 status           
##  2 subrecipient     
##  3 projectIdentifier
##  4 programArea      
##  5 programFy        
##  6 region           
##  7 state            
##  8 stateNumberCode  
##  9 county           
## 10 countyCode       
## # … with 19 more rows
…
# construct a list containing filters for Flood Mitigation Assistance projects in Florida
filter_list <- c(programArea = c("FMA"),
                 state = c("Florida")) 

# pass filter_list to the open_fema function to retreieve data.
df <- open_fema(data_set = "HazardMitigationAssistanceProjects", filters = filter_list, 
               ask_before_call = FALSE)

df

## # A tibble: 345 × 31
##    projectIden…¹ progr…² progr…³ region state state…⁴ county count…⁵ disas…⁶ proje…⁷ proje…⁸ status
##    <chr>         <chr>   <chr>   <chr>  <chr> <chr>   <chr>  <chr>   <chr>   <chr>   <chr>   <chr> 
##  1 FMA-PJ-04-FL… FMA     2005    4      Flor… 12      Browa… 11      NULL    BROWARD 405.1:… Closed
##  2 FMA-PJ-04-FL… FMA     2005    4      Flor… 12      Volus… 127     NULL    VOLUSIA 200.1:… Closed
##  3 FMA-PJ-04-FL… FMA     2017    4      Flor… 12      Clay   19      NULL    CLAY    200.1:… Closed
##  4 FMA-PJ-04-FL… FMA     2018    4      Flor… 12      Clay   19      NULL    CLAY    202.1:… Oblig…
##  5 FMA-PJ-04-FL… FMA     2008    4      Flor… 12      Volus… 127     NULL    VOLUSIA 202.2:… Closed
##  6 FMA-PJ-04-FL… FMA     2007    4      Flor… 12      Volus… 127     NULL    VOLUSIA 202.1:… Closed
##  7 FMA-PJ-04-FL… FMA     2009    4      Flor… 12      Volus… 127     NULL    VOLUSIA 202.1:… Closed
##  8 FMA-PJ-04-FL… FMA     2016    4      Flor… 12      Volus… 127     NULL    VOLUSIA 200.1:… Closed
##  9 FMA-PJ-04-FL… FMA     2009    4      Flor… 12      Volus… 127     NULL    VOLUSIA 200.2:… Closed
## 10 FMA-PJ-04-FL… FMA     2012    4      Flor… 12      Volus… 127     NULL    VOLUSIA 202.1:… Closed
## # … with 335 more rows, 19 more variables: recipient <chr>, recipientTribalIndicator <chr>,
## #   subrecipient <chr>, subrecipientTribalIndicator <chr>, dataSource <chr>, dateApproved <dttm>,
## #   dateClosed <dttm>, dateInitiallyApproved <dttm>, projectAmount <chr>,
## #   federalShareObligated <chr>, subrecipientAdminCostAmt <chr>, srmcObligatedAmt <chr>,
## #   recipientAdminCostAmt <chr>, costSharePercentage <chr>, benefitCostRatio <chr>,
## #   netValueBenefits <chr>, numberOfFinalProperties <chr>, numberOfProperties <chr>, id <chr>, and
## #   abbreviated variable names ¹​projectIdentifier, ²​programArea, ³​programFy, ⁴​stateNumberCode, …
…
See which columns we can filter on to select just Hurricane Irma related grants

# see which parameter can be used for filtering the Housing Assistance for Renters 
valid_parameters("HousingAssistanceRenters") 

## # A tibble: 21 × 1
##    params                    
##    <chr>                     
##  1 disasterNumber            
##  2 state                     
##  3 county                    
##  4 city                      
##  5 zipCode                   
##  6 validRegistrations        
##  7 totalInspected            
##  8 totalInspectedWithNoDamage
##  9 totalWithModerateDamage   
## 10 totalWithMajorDamage      
## # … with 11 more rows
…
## 
Obtaining Data: 1 out of 5 iterations (20% complete)
Obtaining Data: 2 out of 5 iterations (40%
## complete)
Obtaining Data: 3 out of 5 iterations (60% complete)
Obtaining Data: 4 out of 5 iterations
## (80% complete)
Obtaining Data: 5 out of 5 iterations (100% complete)

# filter disaster declarations to those with "hurricane" in the name
hurricanes <- distinct(dd %>% filter(grepl("hurricane",tolower(disasterName))) %>% select(disasterName, disasterNumber))
hurricanes

## # A tibble: 393 × 2
##    disasterName     disasterNumber
##    <chr>            <chr>         
##  1 HURRICANE IDALIA 4734          
##  2 HURRICANE IDALIA 4738          
##  3 HURRICANE LANE   3399          
##  4 HURRICANE IAN    4673          
##  5 HURRICANE HENRI  3563          
##  6 HURRICANE LEE    3599          
##  7 HURRICANE LEE    3598          
##  8 HURRICANE IDALIA 3597          
##  9 HURRICANE NICOLE 4680          
## 10 HURRICANE IAN    4677          
## # … with 383 more rows
…
Check out the returned data

# check out the returned data
assistance_irma

## # A tibble: 5,358 × 21
##    disasterNum…¹ state county city  zipCode valid…² total…³ total…⁴ total…⁵ total…⁶ total…⁷ appro…⁸
##    <chr>         <chr> <chr>  <chr> <chr>   <chr>   <chr>   <chr>   <chr>   <chr>   <chr>   <chr>  
##  1 4335          VI    St. J… ST J… 00083   1       0       1       0       0       0       1      
##  2 4335          VI    St. T… CHAL… 00801   1       0       1       0       0       0       0      
##  3 4335          VI    St. T… CHAR… 00801   1       1       1       0       0       0       0      
##  4 4335          VI    St. T… CHAR… 00801   10      8       6       3       0       0       5      
##  5 4335          VI    St. T… CHAR… 00801   1       1       1       0       0       0       1      
##  6 4335          VI    St. T… CHAR… 00801   1       1       1       0       0       0       1      
##  7 4335          VI    St. T… SAIN… 00801   7       6       7       0       0       0       1      
##  8 4335          VI    St. T… STT   00801   1       1       1       0       0       0       0      
##  9 4335          VI    St. T… STTH… 00801   6       4       4       2       0       0       2      
## 10 4335          VI    St. T… ST T… 00801   219     181     142     66      10      0       126    
## # … with 5,348 more rows, 9 more variables: totalApprovedIhpAmount <chr>,
## #   repairReplaceAmount <chr>, rentalAmount <chr>, otherNeedsAmount <chr>,
## #   approvedBetween1And10000 <chr>, approvedBetween10001And25000 <chr>,
## #   approvedBetween25001AndMax <chr>, totalMaxGrants <chr>, id <chr>, and abbreviated variable
## #   names ¹​disasterNumber, ²​validRegistrations, ³​totalInspected, ⁴​totalInspectedWithNoDamage,
## #   ⁵​totalWithModerateDamage, ⁶​totalWithMajorDamage, ⁷​totalWithSubstantialDamage,
## #   ⁸​approvedForFemaAssistance
…
print(paste0("$",round(rent_assistance,2),
             " million was awarded by FEMA for rental assistance following Hurricane Irma"))

## [1] "$314.64 million was awarded by FEMA for rental assistance following Hurricane Irma"

Clean one of the data sets with a nested structure

Some data sets that get returned from the FEMA API will be in a nested format. Data from the Integrated Public Alert & Warning System (IPAWS) is one such example of this. See for example the first column of the IPAWS data set, which is XML data returned as a character. Most of the useful information from this data set is in that first column, but isn’t in a form that will be useful for most R users.

# get the first ten entries from the IPAWS data set
ipaws <- rfema::open_fema("IpawsArchivedAlerts", top_n = 100)

ipaws

## # A tibble: 100 × 18
##    originalM…¹ ident…² sender sent  status msgType source scope restr…³ addre…⁴ code  note  searc…⁵
##    <chr>       <chr>   <chr>  <chr> <chr>  <chr>   <chr>  <chr> <chr>   <chr>   <chr> <chr> <chr>  
##  1 "<?xml ver… NWS-14… w-nws… 2016… Actual Cancel  NULL   Publ… NULL    NULL    "lis… NULL  "NULL" 
##  2 "<?xml ver… NWS-14… w-nws… 2016… Actual Alert   NULL   Publ… NULL    NULL    "lis… NULL  "list(…
##  3 "<?xml ver… NWS-14… w-nws… 2016… Actual Alert   NULL   Publ… NULL    NULL    "lis… NULL  "list(…
##  4 "<?xml ver… NWS-14… w-nws… 2016… Actual Cancel  NULL   Publ… NULL    NULL    "lis… NULL  "list(…
##  5 "<?xml ver… NWS-14… w-nws… 2016… Actual Update  NULL   Publ… NULL    NULL    "lis… NULL  "list(…
##  6 "<?xml ver… NWS-14… w-nws… 2016… Actual Alert   NULL   Publ… NULL    NULL    "lis… NULL  "NULL" 
##  7 "<?xml ver… NWS-14… w-nws… 2016… Actual Alert   NULL   Publ… NULL    NULL    "lis… NULL  "list(…
##  8 "<?xml ver… NWS-14… w-nws… 2016… Actual Alert   NULL   Publ… NULL    NULL    "lis… NULL  "list(…
##  9 "<?xml ver… NWS-14… w-nws… 2016… Actual Update  NULL   Publ… NULL    NULL    "lis… NULL  "NULL" 
## 10 "<?xml ver… NWS-14… w-nws… 2016… Actual Update  NULL   Publ… NULL    NULL    "lis… NULL  "NULL" 
## # … with 90 more rows, 5 more variables: incidents <chr>, cogId <chr>, id <chr>, xmlns <chr>,
## #   info <chr>, and abbreviated variable names ¹​originalMessage, ²​identifier, ³​restriction,
## #   ⁴​addresses, ⁵​searchGeometry
…
